%YAML 1.1
%TAG !u! tag:unity3d.com,2011:
--- !u!114 &11400000
MonoBehaviour:
  m_ObjectHideFlags: 0
  m_CorrespondingSourceObject: {fileID: 0}
  m_PrefabInstance: {fileID: 0}
  m_PrefabAsset: {fileID: 0}
  m_GameObject: {fileID: 0}
  m_Enabled: 1
  m_EditorHideFlags: 0
  m_Script: {fileID: 11500000, guid: 19c44f80b25138f4baf7269bcbd96d08, type: 3}
  m_Name: 2_Eye prosthesis and Orbital implant
  m_EditorClassIdentifier: 
  name_th: "\u0E15\u0E32\u0E40\u0E17\u0E35\u0E22\u0E21\u0E41\u0E25\u0E30\u0E25\u0E39\u0E01\u0E15\u0E32\u0E40\u0E17\u0E35\u0E22\u0E21"
  name_en: Eye prosthesis and Orbital implant
  description_th: "\u0E43\u0E0A\u0E49\u0E43\u0E2A\u0E48\u0E43\u0E19\u0E1C\u0E39\u0E49\u0E1B\u0E48\u0E27\u0E22\u0E17\u0E35\u0E48\u0E44\u0E21\u0E48\u0E21\u0E35\u0E25\u0E39\u0E01\u0E15\u0E32\u0E2B\u0E23\u0E37\u0E2D\u0E17\u0E35\u0E48\u0E15\u0E49\u0E2D\u0E07\u0E44\u0E14\u0E49\u0E23\u0E31\u0E1A\u0E01\u0E32\u0E23\u0E1C\u0E48\u0E32\u0E15\u0E31\u0E14\u0E40\u0E2D\u0E32\u0E15\u0E32\u0E2D\u0E2D\u0E01
    \u0E42\u0E14\u0E22 <br> - \u0E15\u0E32\u0E1B\u0E25\u0E2D\u0E21 \u0E04\u0E37\u0E2D\u0E27\u0E31\u0E2A\u0E14\u0E38\u0E17\u0E35\u0E48\u0E02\u0E36\u0E49\u0E19\u0E23\u0E39\u0E1B\u0E43\u0E2B\u0E49\u0E44\u0E14\u0E49\u0E02\u0E19\u0E32\u0E14\u0E41\u0E25\u0E30\u0E25\u0E07\u0E2A\u0E35\u0E43\u0E2B\u0E49\u0E21\u0E35\u0E15\u0E32\u0E02\u0E32\u0E27
    \u0E15\u0E32\u0E14\u0E33 \u0E40\u0E2A\u0E49\u0E19\u0E40\u0E25\u0E37\u0E2D\u0E14\u0E41\u0E25\u0E30\u0E23\u0E32\u0E22\u0E25\u0E30\u0E40\u0E2D\u0E35\u0E22\u0E14\u0E04\u0E25\u0E49\u0E32\u0E22\u0E15\u0E32\u0E08\u0E23\u0E34\u0E07
    \u0E42\u0E14\u0E22\u0E21\u0E35\u0E27\u0E31\u0E2A\u0E14\u0E38\u0E44\u0E14\u0E49\u0E2B\u0E25\u0E32\u0E22\u0E0A\u0E19\u0E34\u0E14
    \u0E40\u0E0A\u0E48\u0E19 \u0E1E\u0E25\u0E32\u0E2A\u0E15\u0E34\u0E01 \u0E2D\u0E30\u0E04\u0E25\u0E34\u0E25\u0E34\u0E01
    \u0E40\u0E1B\u0E47\u0E19\u0E15\u0E49\u0E19 \u0E43\u0E0A\u0E49\u0E43\u0E2A\u0E48\u0E43\u0E19\u0E1C\u0E39\u0E49\u0E1B\u0E48\u0E27\u0E22\u0E17\u0E35\u0E48\u0E44\u0E21\u0E48\u0E21\u0E35\u0E25\u0E39\u0E01\u0E15\u0E32\u0E2B\u0E23\u0E37\u0E2D\u0E15\u0E32\u0E1D\u0E48\u0E2D
    \u0E40\u0E0A\u0E48\u0E19 \u0E1C\u0E39\u0E49\u0E1B\u0E48\u0E27\u0E22\u0E17\u0E35\u0E48\u0E21\u0E35\u0E01\u0E32\u0E23\u0E2B\u0E14\u0E23\u0E31\u0E49\u0E07\u0E02\u0E2D\u0E07\u0E40\u0E1A\u0E49\u0E32\u0E15\u0E32\u0E08\u0E32\u0E01\u0E1C\u0E25\u0E02\u0E2D\u0E07\u0E01\u0E32\u0E23\u0E09\u0E32\u0E22\u0E41\u0E2A\u0E07
    \u0E01\u0E32\u0E23\u0E16\u0E39\u0E01\u0E2A\u0E32\u0E23\u0E40\u0E04\u0E21\u0E35
    \u0E41\u0E25\u0E30\u0E43\u0E0A\u0E49\u0E43\u0E19\u0E01\u0E32\u0E23\u0E02\u0E22\u0E32\u0E22\u0E02\u0E19\u0E32\u0E14\u0E23\u0E48\u0E2D\u0E07\u0E15\u0E32\u0E41\u0E25\u0E30\u0E40\u0E1A\u0E49\u0E32\u0E15\u0E32
    \u0E43\u0E19\u0E1C\u0E39\u0E49\u0E1B\u0E48\u0E27\u0E22\u0E40\u0E14\u0E47\u0E01\u0E17\u0E35\u0E48\u0E44\u0E14\u0E49\u0E23\u0E31\u0E1A\u0E01\u0E32\u0E23\u0E1C\u0E48\u0E32\u0E15\u0E31\u0E14\u0E40\u0E2D\u0E32\u0E15\u0E32\u0E2D\u0E2D\u0E01\u0E15\u0E31\u0E49\u0E07\u0E41\u0E15\u0E48\u0E40\u0E14\u0E47\u0E01
    \u0E17\u0E35\u0E48\u0E15\u0E49\u0E2D\u0E07\u0E43\u0E0A\u0E49\u0E40\u0E27\u0E25\u0E32\u0E43\u0E19\u0E01\u0E32\u0E23\u0E02\u0E22\u0E32\u0E22\u0E19\u0E32\u0E19\u0E01\u0E27\u0E48\u0E32
    6 \u0E40\u0E14\u0E37\u0E2D\u0E19 \u0E42\u0E14\u0E22\u0E01\u0E32\u0E23\u0E04\u0E48\u0E2D\u0E22\u0E46\u0E40\u0E1B\u0E25\u0E35\u0E48\u0E22\u0E19\u0E02\u0E19\u0E32\u0E14\u0E43\u0E2B\u0E49\u0E43\u0E2B\u0E0D\u0E48\u0E02\u0E36\u0E49\u0E19\u0E40\u0E1B\u0E47\u0E19\u0E25\u0E33\u0E14\u0E31\u0E1A\u0E21\u0E35\u0E25\u0E31\u0E01\u0E29\u0E13\u0E30\u0E40\u0E1B\u0E47\u0E19\u0E41\u0E1C\u0E48\u0E19\u0E2A\u0E32\u0E23\u0E2A\u0E31\u0E07\u0E40\u0E04\u0E23\u0E32\u0E30\u0E2B\u0E4C\u0E23\u0E30\u0E1A\u0E32\u0E22\u0E2A\u0E35 
    <br> - \u0E25\u0E39\u0E01\u0E15\u0E32\u0E40\u0E17\u0E35\u0E22\u0E21 \u0E04\u0E37\u0E2D\u0E27\u0E31\u0E2A\u0E14\u0E38\u0E17\u0E35\u0E48\u0E43\u0E0A\u0E49\u0E1D\u0E31\u0E07\u0E2B\u0E19\u0E38\u0E19\u0E14\u0E49\u0E32\u0E19\u0E43\u0E19\u0E40\u0E1A\u0E49\u0E32\u0E15\u0E32\u0E40\u0E1E\u0E37\u0E48\u0E2D\u0E43\u0E2B\u0E49\u0E1B\u0E23\u0E34\u0E21\u0E32\u0E15\u0E23\u0E43\u0E01\u0E25\u0E49\u0E40\u0E04\u0E35\u0E22\u0E07\u0E01\u0E31\u0E1A\u0E15\u0E32\u0E2D\u0E35\u0E01\u0E02\u0E49\u0E32\u0E07
    \u0E43\u0E0A\u0E49\u0E43\u0E19\u0E01\u0E32\u0E23\u0E1C\u0E48\u0E32\u0E15\u0E31\u0E14\u0E41\u0E25\u0E49\u0E27\u0E1D\u0E31\u0E07\u0E14\u0E49\u0E32\u0E19\u0E43\u0E19
    \u0E17\u0E14\u0E41\u0E17\u0E19\u0E1B\u0E23\u0E34\u0E21\u0E32\u0E15\u0E23\u0E02\u0E2D\u0E07\u0E25\u0E39\u0E01\u0E15\u0E32\u0E17\u0E35\u0E48\u0E40\u0E2D\u0E32\u0E2D\u0E2D\u0E01\u0E44\u0E1B
    \u0E21\u0E35\u0E17\u0E31\u0E49\u0E07\u0E27\u0E31\u0E2A\u0E14\u0E38\u0E17\u0E35\u0E48\u0E40\u0E1B\u0E47\u0E19\u0E23\u0E39\u0E1E\u0E23\u0E38\u0E19
    \u0E40\u0E0A\u0E48\u0E19 \u0E1B\u0E30\u0E01\u0E32\u0E23\u0E31\u0E07 \u0E01\u0E23\u0E30\u0E14\u0E39\u0E01\u0E27\u0E31\u0E27
    Hydroxyapatite \u0E41\u0E25\u0E30\u0E25\u0E39\u0E01\u0E17\u0E36\u0E1A\u0E15\u0E31\u0E19\u0E17\u0E35\u0E48\u0E17\u0E33\u0E21\u0E32\u0E08\u0E32\u0E01\u0E2D\u0E30\u0E04\u0E23\u0E34\u0E25\u0E34\u0E04 
    \u0E40\u0E2B\u0E21\u0E32\u0E30\u0E01\u0E31\u0E1A\u0E1C\u0E39\u0E49\u0E1B\u0E48\u0E27\u0E22\u0E17\u0E35\u0E48\u0E21\u0E35\u0E15\u0E32\u0E1D\u0E48\u0E2D\u0E17\u0E31\u0E49\u0E07\u0E17\u0E35\u0E48\u0E40\u0E01\u0E34\u0E14\u0E08\u0E32\u0E01\u0E01\u0E32\u0E23\u0E1A\u0E32\u0E14\u0E40\u0E08\u0E47\u0E1A\u0E2B\u0E23\u0E37\u0E2D\u0E40\u0E1B\u0E47\u0E19\u0E41\u0E15\u0E48\u0E01\u0E33\u0E40\u0E19\u0E34\u0E14 "
  description_en: "\u0E43\u0E0A\u0E49\u0E43\u0E2A\u0E48\u0E43\u0E19\u0E1C\u0E39\u0E49\u0E1B\u0E48\u0E27\u0E22\u0E17\u0E35\u0E48\u0E44\u0E21\u0E48\u0E21\u0E35\u0E25\u0E39\u0E01\u0E15\u0E32\u0E2B\u0E23\u0E37\u0E2D\u0E17\u0E35\u0E48\u0E15\u0E49\u0E2D\u0E07\u0E44\u0E14\u0E49\u0E23\u0E31\u0E1A\u0E01\u0E32\u0E23\u0E1C\u0E48\u0E32\u0E15\u0E31\u0E14\u0E40\u0E2D\u0E32\u0E15\u0E32\u0E2D\u0E2D\u0E01
    \u0E42\u0E14\u0E22 <br> - \u0E15\u0E32\u0E1B\u0E25\u0E2D\u0E21 \u0E04\u0E37\u0E2D\u0E27\u0E31\u0E2A\u0E14\u0E38\u0E17\u0E35\u0E48\u0E02\u0E36\u0E49\u0E19\u0E23\u0E39\u0E1B\u0E43\u0E2B\u0E49\u0E44\u0E14\u0E49\u0E02\u0E19\u0E32\u0E14\u0E41\u0E25\u0E30\u0E25\u0E07\u0E2A\u0E35\u0E43\u0E2B\u0E49\u0E21\u0E35\u0E15\u0E32\u0E02\u0E32\u0E27
    \u0E15\u0E32\u0E14\u0E33 \u0E40\u0E2A\u0E49\u0E19\u0E40\u0E25\u0E37\u0E2D\u0E14\u0E41\u0E25\u0E30\u0E23\u0E32\u0E22\u0E25\u0E30\u0E40\u0E2D\u0E35\u0E22\u0E14\u0E04\u0E25\u0E49\u0E32\u0E22\u0E15\u0E32\u0E08\u0E23\u0E34\u0E07
    \u0E42\u0E14\u0E22\u0E21\u0E35\u0E27\u0E31\u0E2A\u0E14\u0E38\u0E44\u0E14\u0E49\u0E2B\u0E25\u0E32\u0E22\u0E0A\u0E19\u0E34\u0E14
    \u0E40\u0E0A\u0E48\u0E19 \u0E1E\u0E25\u0E32\u0E2A\u0E15\u0E34\u0E01 \u0E2D\u0E30\u0E04\u0E25\u0E34\u0E25\u0E34\u0E01
    \u0E40\u0E1B\u0E47\u0E19\u0E15\u0E49\u0E19 \u0E43\u0E0A\u0E49\u0E43\u0E2A\u0E48\u0E43\u0E19\u0E1C\u0E39\u0E49\u0E1B\u0E48\u0E27\u0E22\u0E17\u0E35\u0E48\u0E44\u0E21\u0E48\u0E21\u0E35\u0E25\u0E39\u0E01\u0E15\u0E32\u0E2B\u0E23\u0E37\u0E2D\u0E15\u0E32\u0E1D\u0E48\u0E2D
    \u0E40\u0E0A\u0E48\u0E19 \u0E1C\u0E39\u0E49\u0E1B\u0E48\u0E27\u0E22\u0E17\u0E35\u0E48\u0E21\u0E35\u0E01\u0E32\u0E23\u0E2B\u0E14\u0E23\u0E31\u0E49\u0E07\u0E02\u0E2D\u0E07\u0E40\u0E1A\u0E49\u0E32\u0E15\u0E32\u0E08\u0E32\u0E01\u0E1C\u0E25\u0E02\u0E2D\u0E07\u0E01\u0E32\u0E23\u0E09\u0E32\u0E22\u0E41\u0E2A\u0E07
    \u0E01\u0E32\u0E23\u0E16\u0E39\u0E01\u0E2A\u0E32\u0E23\u0E40\u0E04\u0E21\u0E35
    \u0E41\u0E25\u0E30\u0E43\u0E0A\u0E49\u0E43\u0E19\u0E01\u0E32\u0E23\u0E02\u0E22\u0E32\u0E22\u0E02\u0E19\u0E32\u0E14\u0E23\u0E48\u0E2D\u0E07\u0E15\u0E32\u0E41\u0E25\u0E30\u0E40\u0E1A\u0E49\u0E32\u0E15\u0E32
    \u0E43\u0E19\u0E1C\u0E39\u0E49\u0E1B\u0E48\u0E27\u0E22\u0E40\u0E14\u0E47\u0E01\u0E17\u0E35\u0E48\u0E44\u0E14\u0E49\u0E23\u0E31\u0E1A\u0E01\u0E32\u0E23\u0E1C\u0E48\u0E32\u0E15\u0E31\u0E14\u0E40\u0E2D\u0E32\u0E15\u0E32\u0E2D\u0E2D\u0E01\u0E15\u0E31\u0E49\u0E07\u0E41\u0E15\u0E48\u0E40\u0E14\u0E47\u0E01
    \u0E17\u0E35\u0E48\u0E15\u0E49\u0E2D\u0E07\u0E43\u0E0A\u0E49\u0E40\u0E27\u0E25\u0E32\u0E43\u0E19\u0E01\u0E32\u0E23\u0E02\u0E22\u0E32\u0E22\u0E19\u0E32\u0E19\u0E01\u0E27\u0E48\u0E32
    6 \u0E40\u0E14\u0E37\u0E2D\u0E19 \u0E42\u0E14\u0E22\u0E01\u0E32\u0E23\u0E04\u0E48\u0E2D\u0E22\u0E46\u0E40\u0E1B\u0E25\u0E35\u0E48\u0E22\u0E19\u0E02\u0E19\u0E32\u0E14\u0E43\u0E2B\u0E49\u0E43\u0E2B\u0E0D\u0E48\u0E02\u0E36\u0E49\u0E19\u0E40\u0E1B\u0E47\u0E19\u0E25\u0E33\u0E14\u0E31\u0E1A\u0E21\u0E35\u0E25\u0E31\u0E01\u0E29\u0E13\u0E30\u0E40\u0E1B\u0E47\u0E19\u0E41\u0E1C\u0E48\u0E19\u0E2A\u0E32\u0E23\u0E2A\u0E31\u0E07\u0E40\u0E04\u0E23\u0E32\u0E30\u0E2B\u0E4C\u0E23\u0E30\u0E1A\u0E32\u0E22\u0E2A\u0E35 
    <br> - \u0E25\u0E39\u0E01\u0E15\u0E32\u0E40\u0E17\u0E35\u0E22\u0E21 \u0E04\u0E37\u0E2D\u0E27\u0E31\u0E2A\u0E14\u0E38\u0E17\u0E35\u0E48\u0E43\u0E0A\u0E49\u0E1D\u0E31\u0E07\u0E2B\u0E19\u0E38\u0E19\u0E14\u0E49\u0E32\u0E19\u0E43\u0E19\u0E40\u0E1A\u0E49\u0E32\u0E15\u0E32\u0E40\u0E1E\u0E37\u0E48\u0E2D\u0E43\u0E2B\u0E49\u0E1B\u0E23\u0E34\u0E21\u0E32\u0E15\u0E23\u0E43\u0E01\u0E25\u0E49\u0E40\u0E04\u0E35\u0E22\u0E07\u0E01\u0E31\u0E1A\u0E15\u0E32\u0E2D\u0E35\u0E01\u0E02\u0E49\u0E32\u0E07
    \u0E43\u0E0A\u0E49\u0E43\u0E19\u0E01\u0E32\u0E23\u0E1C\u0E48\u0E32\u0E15\u0E31\u0E14\u0E41\u0E25\u0E49\u0E27\u0E1D\u0E31\u0E07\u0E14\u0E49\u0E32\u0E19\u0E43\u0E19
    \u0E17\u0E14\u0E41\u0E17\u0E19\u0E1B\u0E23\u0E34\u0E21\u0E32\u0E15\u0E23\u0E02\u0E2D\u0E07\u0E25\u0E39\u0E01\u0E15\u0E32\u0E17\u0E35\u0E48\u0E40\u0E2D\u0E32\u0E2D\u0E2D\u0E01\u0E44\u0E1B
    \u0E21\u0E35\u0E17\u0E31\u0E49\u0E07\u0E27\u0E31\u0E2A\u0E14\u0E38\u0E17\u0E35\u0E48\u0E40\u0E1B\u0E47\u0E19\u0E23\u0E39\u0E1E\u0E23\u0E38\u0E19
    \u0E40\u0E0A\u0E48\u0E19 \u0E1B\u0E30\u0E01\u0E32\u0E23\u0E31\u0E07 \u0E01\u0E23\u0E30\u0E14\u0E39\u0E01\u0E27\u0E31\u0E27
    Hydroxyapatite \u0E41\u0E25\u0E30\u0E25\u0E39\u0E01\u0E17\u0E36\u0E1A\u0E15\u0E31\u0E19\u0E17\u0E35\u0E48\u0E17\u0E33\u0E21\u0E32\u0E08\u0E32\u0E01\u0E2D\u0E30\u0E04\u0E23\u0E34\u0E25\u0E34\u0E04 
    \u0E40\u0E2B\u0E21\u0E32\u0E30\u0E01\u0E31\u0E1A\u0E1C\u0E39\u0E49\u0E1B\u0E48\u0E27\u0E22\u0E17\u0E35\u0E48\u0E21\u0E35\u0E15\u0E32\u0E1D\u0E48\u0E2D\u0E17\u0E31\u0E49\u0E07\u0E17\u0E35\u0E48\u0E40\u0E01\u0E34\u0E14\u0E08\u0E32\u0E01\u0E01\u0E32\u0E23\u0E1A\u0E32\u0E14\u0E40\u0E08\u0E47\u0E1A\u0E2B\u0E23\u0E37\u0E2D\u0E40\u0E1B\u0E47\u0E19\u0E41\u0E15\u0E48\u0E01\u0E33\u0E40\u0E19\u0E34\u0E14
    (EN)"
  img: {fileID: 21300000, guid: a082f33a5ba022c41843161ca4ab0350, type: 3}
  img_description_th: {fileID: 21300000, guid: d2d04491bfc038345b4489fd2b62bd73, type: 3}
  img_description_en: {fileID: 21300000, guid: aadca74acabcb7741848005be66e10e1, type: 3}
